{"10262-3796v1": 208.69565217391306, 
  "10556-4028hijr": 208.69565217391306, 
  "10260-3796r2": 208.69565217391306, 
  "10556-4028hijv": 208.69565217391306, 
  "10327-3849br": 208.69565217391306, 
  "10431-3869br": 208.69565217391306}